// Jest Snapshot v1, https://goo.gl/fbAQLP

exports[`BagSummary compare with snapshots 1`] = `
<section
  className="BagSummary"
>
  <div
    className="BagSummary__Top"
  >
    <div
      className="BagSummary__Column"
    >
      <span
        className="BagSummary__Title"
      >
        summary
      </span>
    </div>
    <div
      className={
        Array [
          "BagSummary__Column",
          "BagSummary__Column_Right",
        ]
      }
    >
      <span
        className="BagSummary__Small"
      >
        Quantity 0
      </span>
    </div>
  </div>
  <div
    className="BagSummary__Bottom"
  >
    <div
      className="BagSummary__Column"
    >
      <span
        className="BagSummary__Text BagSummary__TextBold"
      >
        total
      </span>
    </div>
    <div
      className="BagSummary__Column BagSummary__Column_Right"
    >
      <div
        className="BagSummary__Text"
      >
        <span>
           
        </span>
        <span
          className="BagSummary__Text BagSummary__TextBold"
          data-testid="BagSummaryTotal"
        >
          0
        </span>
      </div>
      <span
        className="BagSummary__Small"
      >
        Duties & Taxes included
      </span>
    </div>
  </div>
</section>
`;

exports[`BagSummary compare with snapshots 2`] = `
<section
  className="BagSummary"
>
  <div
    className="BagSummary__Top"
  >
    <div
      className="BagSummary__Column"
    >
      <span
        className="BagSummary__Title"
      >
        summary
      </span>
    </div>
    <div
      className={
        Array [
          "BagSummary__Column",
          "BagSummary__Column_Right",
        ]
      }
    >
      <span
        className="BagSummary__Small"
      >
        Quantity 2
      </span>
    </div>
  </div>
  <div
    className="BagSummary__Bottom"
  >
    <div
      className="BagSummary__Column"
    >
      <span
        className="BagSummary__Text BagSummary__TextBold"
      >
        total
      </span>
    </div>
    <div
      className="BagSummary__Column BagSummary__Column_Right"
    >
      <div
        className="BagSummary__Text"
      >
        <span>
          GBP
           
        </span>
        <span
          className="BagSummary__Text BagSummary__TextBold"
          data-testid="BagSummaryTotal"
        >
          £1,163.66
        </span>
      </div>
      <span
        className="BagSummary__Small"
      >
        Duties & Taxes included
      </span>
    </div>
  </div>
</section>
`;
